International Severe Acute Respiratory and Emerging Infections Consortium (ISARIC)
…
## 
## $data3
## # A tibble: 24 x 4
##    Condition            present absent unknown
##    <chr>                  <int>  <int>   <int>
##  1 abdopain_ceoccur_v2       52    585     299
##  2 bleed_ceoccur_v2           4    638     294
##  3 chestpain_ceoccur_v2     101    549     286
##  4 confusion_ceoccur_v2     126    543     267
##  5 conjunct_ceoccur_v2        7    578     351
##  6 cough.bloodysputum        28    614     294
##  7 cough.nosputum           390    397     149
##  8 cough.sputum             332    455     149
##  9 diarrhoea_ceoccur_v2     112    554     270
## 10 earpain_ceoccur_v2         6    537     393
## #  with 14 more rows
…
